{
  "android": {
    "font_name": "default",
    "font_size": 192,
    "isForked": false
  },
  "androidwearos": {
    "font_name": "default",
    "font_size": 246,
    "isForked": false
  },
  "background_color": "00000000",
  "bg_type": "one",
  "border_color": "424242ff",
  "border_style": "plain",
  "border_type": 0,
  "border_width": 0,
  "desktopweb": {
    "font_name": "Helvetica",
    "font_size": 431,
    "isForked": false
  },
  "fontSizeInPx": true,
  "font_color": "333333ff",
  "font_name": "iphoneSystem",
  "font_size": 173,
  "font_style": "normal",
  "font_weight": "normal",
  "ipad": {
    "font_name": "System",
    "font_size": 246,
    "isForked": false
  },
  "iphone": {
    "font_name": "System",
    "font_size": 173,
    "isForked": false
  },
  "isDefaultSkin": false,
  "kiosk": {
    "font_name": "None",
    "font_size": 431,
    "isForked": false
  },
  "kuid": "s412d312b0904d62b14e87513dfa64a1",
  "spaan": {
    "font_name": "Helvetica",
    "font_size": 153,
    "isForked": false
  },
  "spaandroidtablet": {
    "font_name": "Helvetica",
    "font_size": 128,
    "isForked": false
  },
  "spabb": {
    "font_name": "Helvetica",
    "font_size": 192,
    "isForked": false
  },
  "spaip": {
    "font_name": "Helvetica",
    "font_size": 164,
    "isForked": false
  },
  "spaipad": {
    "font_name": "Helvetica",
    "font_size": 135,
    "isForked": false
  },
  "spawindowstablet": {
    "font_name": "Helvetica",
    "font_size": 135,
    "isForked": false
  },
  "spawinphone8": {
    "font_name": "Helvetica",
    "font_size": 192,
    "isForked": false
  },
  "tabrcandroid": {
    "font_name": "default",
    "font_size": 409,
    "isForked": false
  },
  "wType": "Label",
  "watchos": {
    "font_name": "System",
    "font_size": 246,
    "isForked": false
  },
  "windows8": {
    "font_name": "None",
    "font_size": 168,
    "isForked": false
  },
  "winphone8": {
    "font_name": "None",
    "font_size": 230,
    "isForked": false
  }
}