{
  "android": {
    "font_name": "default",
    "font_size": 222,
    "isForked": false
  },
  "androidwearos": {
    "font_name": "default",
    "font_size": 286,
    "isForked": false
  },
  "background_color": "00000000",
  "bg_type": "one",
  "border_color": "424242ff",
  "border_style": "plain",
  "border_type": 0,
  "border_width": 0,
  "desktopweb": {
    "font_name": "Helvetica",
    "font_size": 500,
    "isForked": false
  },
  "fontSizeInPx": true,
  "font_color": "333333ff",
  "font_name": "iphoneSystem",
  "font_size": 200,
  "font_style": "normal",
  "font_weight": "normal",
  "ipad": {
    "font_name": "System",
    "font_size": 286,
    "isForked": false
  },
  "iphone": {
    "font_name": "System",
    "font_size": 200,
    "isForked": false
  },
  "isDefaultSkin": false,
  "kiosk": {
    "font_name": "None",
    "font_size": 500,
    "isForked": false
  },
  "kuid": "sf138b641bd24029a45fe5ad9109b0ca",
  "spaan": {
    "font_name": "Helvetica",
    "font_size": 178,
    "isForked": false
  },
  "spaandroidtablet": {
    "font_name": "Helvetica",
    "font_size": 148,
    "isForked": false
  },
  "spabb": {
    "font_name": "Helvetica",
    "font_size": 222,
    "isForked": false
  },
  "spaip": {
    "font_name": "Helvetica",
    "font_size": 190,
    "isForked": false
  },
  "spaipad": {
    "font_name": "Helvetica",
    "font_size": 157,
    "isForked": false
  },
  "spawindowstablet": {
    "font_name": "Helvetica",
    "font_size": 157,
    "isForked": false
  },
  "spawinphone8": {
    "font_name": "Helvetica",
    "font_size": 222,
    "isForked": false
  },
  "tabrcandroid": {
    "font_name": "default",
    "font_size": 474,
    "isForked": false
  },
  "wType": "Label",
  "watchos": {
    "font_name": "System",
    "font_size": 286,
    "isForked": false
  },
  "windows8": {
    "font_name": "None",
    "font_size": 195,
    "isForked": false
  },
  "winphone8": {
    "font_name": "None",
    "font_size": 267,
    "isForked": false
  }
}