{
  "android": {
    "font_name": "FontAwesome",
    "font_size": 450,
    "isForked": false
  },
  "androidwearos": {
    "font_name": "FontAwesome",
    "font_size": 579,
    "isForked": false
  },
  "background_color": "4c5af500",
  "bg_type": "one",
  "border_color": "424242ff",
  "border_style": "plain",
  "border_type": 0,
  "border_width": 0,
  "desktopweb": {
    "font_name": "FontAwesome",
    "font_size": 1013,
    "isForked": false
  },
  "fontSizeInPx": true,
  "font_color": "343debff",
  "font_name": "Helvetica",
  "font_size": 450,
  "font_style": "normal",
  "font_weight": "normal",
  "ipad": {
    "font_name": "FontAwesome",
    "font_size": 579,
    "isForked": false
  },
  "iphone": {
    "font_name": "FontAwesome",
    "font_size": 405,
    "isForked": false
  },
  "isDefaultSkin": false,
  "kiosk": {
    "font_name": "FontAwesome",
    "font_size": 1013,
    "isForked": false
  },
  "kuid": "s810025af0df4146ba741ff0339daaf5",
  "spaan": {
    "font_name": "FontAwesome",
    "font_size": 415,
    "isForked": false
  },
  "spaandroidtablet": {
    "font_name": "FontAwesome",
    "font_size": 346,
    "isForked": false
  },
  "spabb": {
    "font_name": "FontAwesome",
    "font_size": 519,
    "isForked": false
  },
  "spaip": {
    "font_name": "FontAwesome",
    "font_size": 443,
    "isForked": false
  },
  "spaipad": {
    "font_name": "FontAwesome",
    "font_size": 367,
    "isForked": false
  },
  "spawindowstablet": {
    "font_name": "FontAwesome",
    "font_size": 367,
    "isForked": false
  },
  "spawinphone8": {
    "font_name": "FontAwesome",
    "font_size": 519,
    "isForked": false
  },
  "tabrcandroid": {
    "font_name": "FontAwesome",
    "font_size": 960,
    "isForked": false
  },
  "wType": "Label",
  "watchos": {
    "font_name": "FontAwesome",
    "font_size": 579,
    "isForked": false
  },
  "windows8": {
    "font_name": "FontAwesome",
    "font_size": 395,
    "isForked": false
  },
  "winphone8": {
    "font_name": "FontAwesome",
    "font_size": 540,
    "isForked": false
  }
}