{
  "android": {
    "font_name": "FontAwesome",
    "font_size": 439,
    "isForked": false
  },
  "androidwearos": {
    "font_name": "FontAwesome",
    "font_size": 564,
    "isForked": false
  },
  "background_color": "00000000",
  "bg_type": "one",
  "border_color": "424242ff",
  "border_style": "plain",
  "border_type": 0,
  "border_width": 0,
  "desktopweb": {
    "font_name": "FontAwesome",
    "font_size": 988,
    "isForked": false
  },
  "fontSizeInPx": true,
  "font_color": "0a0a0a7f",
  "font_name": "Helvetica",
  "font_size": 439,
  "font_style": "normal",
  "font_weight": "normal",
  "ipad": {
    "font_name": "FontAwesome",
    "font_size": 564,
    "isForked": false
  },
  "iphone": {
    "font_name": "FontAwesome",
    "font_size": 395,
    "isForked": false
  },
  "isDefaultSkin": false,
  "kiosk": {
    "font_name": "FontAwesome",
    "font_size": 988,
    "isForked": false
  },
  "kuid": "s9cd7e691d23454886ac0ef91c049563",
  "spaan": {
    "font_name": "FontAwesome",
    "font_size": 301,
    "isForked": false
  },
  "spaandroidtablet": {
    "font_name": "FontAwesome",
    "font_size": 251,
    "isForked": false
  },
  "spabb": {
    "font_name": "FontAwesome",
    "font_size": 376,
    "isForked": false
  },
  "spaip": {
    "font_name": "FontAwesome",
    "font_size": 321,
    "isForked": false
  },
  "spaipad": {
    "font_name": "FontAwesome",
    "font_size": 266,
    "isForked": false
  },
  "spawindowstablet": {
    "font_name": "FontAwesome",
    "font_size": 266,
    "isForked": false
  },
  "spawinphone8": {
    "font_name": "FontAwesome",
    "font_size": 376,
    "isForked": false
  },
  "tabrcandroid": {
    "font_name": "FontAwesome",
    "font_size": 936,
    "isForked": false
  },
  "wType": "Label",
  "watchos": {
    "font_name": "FontAwesome",
    "font_size": 564,
    "isForked": false
  },
  "windows8": {
    "font_name": "FontAwesome",
    "font_size": 385,
    "isForked": false
  },
  "winphone8": {
    "font_name": "FontAwesome",
    "font_size": 527,
    "isForked": false
  }
}