{
  "android": {
    "font_name": "FontAwesome",
    "font_size": 564,
    "isForked": false
  },
  "androidwearos": {
    "font_name": "FontAwesome",
    "font_size": 725,
    "isForked": false
  },
  "background_color": "00000000",
  "bg_type": "one",
  "border_color": "424242ff",
  "border_style": "plain",
  "border_type": 0,
  "border_width": 0,
  "desktopweb": {
    "font_name": "FontAwesome",
    "font_size": 1269,
    "isForked": false
  },
  "fontSizeInPx": true,
  "font_color": "ffffffff",
  "font_name": "Helvetica",
  "font_size": 564,
  "font_style": "normal",
  "font_weight": "normal",
  "ipad": {
    "font_name": "FontAwesome",
    "font_size": 725,
    "isForked": false
  },
  "iphone": {
    "font_name": "FontAwesome",
    "font_size": 508,
    "isForked": false
  },
  "isDefaultSkin": false,
  "kiosk": {
    "font_name": "FontAwesome",
    "font_size": 1269,
    "isForked": false
  },
  "kuid": "sde09cb6f5f446c58a4d19eec0fb2406",
  "spaan": {
    "font_name": "FontAwesome",
    "font_size": 521,
    "isForked": false
  },
  "spaandroidtablet": {
    "font_name": "FontAwesome",
    "font_size": 434,
    "isForked": false
  },
  "spabb": {
    "font_name": "FontAwesome",
    "font_size": 651,
    "isForked": false
  },
  "spaip": {
    "font_name": "FontAwesome",
    "font_size": 555,
    "isForked": false
  },
  "spaipad": {
    "font_name": "FontAwesome",
    "font_size": 459,
    "isForked": false
  },
  "spawindowstablet": {
    "font_name": "FontAwesome",
    "font_size": 459,
    "isForked": false
  },
  "spawinphone8": {
    "font_name": "FontAwesome",
    "font_size": 651,
    "isForked": false
  },
  "tabrcandroid": {
    "font_name": "FontAwesome",
    "font_size": 1203,
    "isForked": false
  },
  "wType": "Label",
  "watchos": {
    "font_name": "FontAwesome",
    "font_size": 725,
    "isForked": false
  },
  "windows8": {
    "font_name": "FontAwesome",
    "font_size": 495,
    "isForked": false
  },
  "winphone8": {
    "font_name": "FontAwesome",
    "font_size": 677,
    "isForked": false
  }
}