{
    "@class": "com.kony.gen.viz.model.component.KVizLabel",
    "DNDConfig": null,
    "__parentReadjusting__": false,
    "_height_": {
        "type": "string",
        "value": "96.19%"
    },
    "_left_": {
        "type": "string",
        "value": "3.2%"
    },
    "_margin_": [
        0,
        0,
        0,
        0
    ],
    "_padding_": [
        0,
        0,
        0,
        0
    ],
    "_skin_": "sb7159cba10b4c29bceae2f5ae3c6bf6",
    "_text_": "",
    "_top_": {
        "type": "string",
        "value": "21.41%"
    },
    "_width_": {
        "type": "ref",
        "value": "preferred"
    },
    "_wrapping_": 2,
    "android": {
        "textStyle": {
            "letterSpacing": 0,
            "strikeThrough": false
        }
    },
    "canUpdateUI": true,
    "centerx": {
        "type": "string",
        "value": "18%"
    },
    "centery": {
        "type": "string",
        "value": "50%"
    },
    "containerweight": 100,
    "contentalignment": 4,
    "id": "ArrowCircleOLeft",
    "info": null,
    "ipad": {
        "psp": {
            "wrapping": 2
        }
    },
    "iphone": {
        "psp": {
            "wrapping": 2
        }
    },
    "isvisible": true,
    "kuid": "dcdcbbba34b54405851aceaa2b49ee03",
    "masterType": 1,
    "name": "kony.ui.Label",
    "parent": "flxBefore",
    "pf": "frmMain",
    "textstyle": {},
    "tooltip": "",
    "wType": "Label",
    "zindex": 1
}