{
    "@class": "com.kony.gen.viz.model.component.KVizButton",
    "DNDConfig": null,
    "__parentReadjusting__": false,
    "_height_": {
        "type": "string",
        "value": "100%"
    },
    "_left_": {
        "type": "string",
        "value": "0dp"
    },
    "_margin_": [
        6,
        6,
        6,
        6
    ],
    "_padding_": [
        0,
        0,
        0,
        0
    ],
    "_skin_": "s6d8d8cb2f5648a5a531051e79f2baee",
    "_text_": "",
    "_top_": {
        "type": "string",
        "value": "0dp"
    },
    "_width_": {
        "type": "string",
        "value": "100%"
    },
    "android": {
        "psp": {}
    },
    "canUpdateUI": true,
    "containerweight": 100,
    "contentalignment": 5,
    "disabledSkins": {
        "pressedSkin": "sf4f04b7cc544794a09ec16c5f095421"
    },
    "displaytext": true,
    "focusskin": "sf4f04b7cc544794a09ec16c5f095421",
    "id": "btnSiguiente",
    "info": null,
    "iscustomlayout": false,
    "isvisible": true,
    "kuid": "b05b230d1cd1427997094d4ef13be8b1",
    "name": "kony.ui.Button",
    "paddinginpixel": false,
    "parent": "flxNext",
    "pf": "frmMain",
    "retaincontentalignment": false,
    "retainflexpositionproperties": false,
    "wType": "Button",
    "zindex": 1
}