{
    "@class": "com.kony.gen.viz.model.component.KVizImage2",
    "DNDConfig": null,
    "__parentReadjusting__": false,
    "_base64_": null,
    "_height_": {
        "type": "string",
        "value": "59.87%"
    },
    "_left_": {
        "type": "string",
        "value": "51.08%"
    },
    "_margin_": [
        0,
        0,
        0,
        0
    ],
    "_padding_": [
        0,
        0,
        0,
        0
    ],
    "_skin_": "saa950b269d04fbc84737c268a1966b9",
    "_src_": "player.png",
    "_top_": {
        "type": "string",
        "value": "20.95%"
    },
    "_width_": {
        "type": "string",
        "value": "14.58%"
    },
    "canUpdateUI": true,
    "containerweight": 100,
    "context": {
        "channel": "mobile",
        "formID": "frmMain",
        "platform": "android",
        "templateType": "forms",
        "topLevelBox": null
    },
    "id": "imgPlayers",
    "imagescalemode": 1,
    "info": null,
    "invokedProperty": "src",
    "iscustomlayout": false,
    "isvisible": true,
    "kuid": "d8393909bb7c456b95312dc444874089",
    "name": "kony.ui.Image2",
    "parent": "flxButtons",
    "pf": "frmMain",
    "retaincontentalignment": false,
    "retainflexpositionproperties": false,
    "srcType": 1,
    "wType": "Image",
    "widgetalignment": 5,
    "zindex": 1
}