{
    "AS_Button_g9e7127f7e954d919a5ed535df9c9c5d": {
        "id": "AS_Button_g9e7127f7e954d919a5ed535df9c9c5d",
        "type": "ACTION_SEQUENCE",
        "params": [{
            "datatype": "collection",
            "name": "eventobject"
        }],
        "contextObj": {
            "name": "frmMain",
            "type": "forms",
            "platform": "",
            "KUID": "c16feb86282c4fb1982b2fc16e60efd8"
        },
        "language": "js",
        "actions": []
    }
}