{
    "AS_Segment_f4a3665827474f86b76febc1787083a6": {
        "id": "AS_Segment_f4a3665827474f86b76febc1787083a6",
        "type": "ACTION_SEQUENCE",
        "params": [{
            "datatype": "collection",
            "name": "eventobject"
        }, {
            "datatype": "number",
            "name": "sectionNumber"
        }, {
            "datatype": "number",
            "name": "rowNumber"
        }],
        "contextObj": {
            "name": "frmMain",
            "type": "forms",
            "platform": "",
            "KUID": "c16feb86282c4fb1982b2fc16e60efd8"
        },
        "language": "js",
        "actions": [{
            "id": "ADD_SNIPPET__b18e5d0faf5b433cbe5a2f066c9951b9",
            "type": "ADD_SNIPPET",
            "codeSnippet": "   for (var i=0; i<this.view.SegTeamData.selectedRowItems.length; i++){\n      teamDataSelected = this.view.SegTeamData.selectedRowItems[i];\n      var ntf = new kony.mvc.Navigation(\"FrmTeamsDetails\");\n      ntf.navigate(teamDataSelected);\n    }\n",
            "parentId": null,
            "callbackType": null
        }]
    }
}